OECD curiosity analysis
…
Suzhou, People’s Republic of China

The gender distribution of participating students is shown in table y.

Table y gender of participating students

demographics<-SSES%>%
  group_by(SiteID, Gender_Std, CohortID)%>%
  summarise(n=n())%>%
  as_factor()%>%
  pivot_wider(names_from = Gender_Std, values_from = n)
print(demographics)

# A tibble: 21 × 5
# Groups:   SiteID [11]
   SiteID      CohortID          `NA` Female  Male
   <fct>       <fct>            <int>  <int> <int>
 1 ""          ""                  25     NA    NA
 2 "Ottawa"    "Younger cohort"   115   1576  1559
 3 "Ottawa"    "Older cohort"      36   1068  1086
 4 "Houston"   "Younger cohort"    34   1673  1626
 5 "Houston"   "Older cohort"      33   1613  1455
 6 "Bogota"    "Younger cohort"    21   1723  1671
 7 "Bogota"    "Older cohort"      27   1658  1671
 8 "Manizales" "Younger cohort"    26   1629  1571
 9 "Manizales" "Older cohort"      22   1824  1685
10 "Helsinki"  "Younger cohort"    30   1506  1498
# ℹ 11 more rows
…
